[{"id":1,"first_name":"Hally","last_name":"Nuzzi","email":"hnuzzi0@boston.com","date":"6/8/2017","time":"12:02","city":"Montesson","address":"23 8th Road","product":"Private Sunset Sailing Charter for Couples from Corralejo","price":100},
{"id":2,"first_name":"Minny","last_name":"Richings","email":"mrichings1@weibo.com","date":"5/5/2017","time":"23:13","city":"Dandian","address":"69510 International Alley","product":"Private Sunset Sailing Charter for Couples from Corralejo","price":100},
{"id":3,"first_name":"Margaretta","last_name":"Ellerton","email":"mellerton2@house.gov","date":"9/20/2017","time":"2:12","city":"Salas","address":"7114 Everett Alley","product":"Dune Buggy Fuerteventura Off Road Excursions","price":75},
{"id":4,"first_name":"Morgana","last_name":"Parmley","email":"mparmley3@bbc.co.uk","date":"11/21/2017","time":"22:19","city":"Vizal San Pablo","address":"500 Center Road","product":"Pirate Themed Photoshoot in Fuerteventura","price":15},
{"id":5,"first_name":"Jennilee","last_name":"Keenor","email":"jkeenor4@wp.com","date":"4/5/2017","time":"7:23","city":"Bacolod","address":"6833 Kipling Way","product":"Pirate Themed Photoshoot in Fuerteventura","price":15},
{"id":6,"first_name":"Shelba","last_name":"Smaridge","email":"ssmaridge5@blog.com","date":"7/29/2017","time":"1:18","city":"Yafan","address":"9 Melby Trail","product":"Private Sunset Sailing Charter for Couples from Corralejo","price":100},
{"id":7,"first_name":"Birgitta","last_name":"Cowgill","email":"bcowgill6@weebly.com","date":"4/3/2017","time":"19:20","city":"Hoçisht","address":"20164 Florence Lane","product":"Dune Buggy Fuerteventura Off Road Excursions","price":75},
{"id":8,"first_name":"Eilis","last_name":"Castanos","email":"ecastanos7@jimdo.com","date":"8/25/2017","time":"9:16","city":"Calaoagan","address":"4277 Cambridge Place","product":"Private Sunset Sailing Charter for Couples from Corralejo","price":100},
{"id":9,"first_name":"Goldi","last_name":"Duiged","email":"gduiged8@yolasite.com","date":"3/6/2017","time":"20:40","city":"Suqu","address":"37 West Center","product":"Acua Water Park","price":32},
{"id":10,"first_name":"Jehanna","last_name":"McCarry","email":"jmccarry9@java.com","date":"5/12/2017","time":"20:59","city":"Harrisburg","address":"4 Bartillon Drive","product":"4-hour sailing tour of Lobos Island","price":60},
{"id":11,"first_name":"Edita","last_name":"Fulger","email":"efulgera@ebay.co.uk","date":"11/24/2017","time":"22:23","city":"Vranje","address":"2986 Del Mar Crossing","product":"Pirate Themed Photoshoot in Fuerteventura","price":15},
{"id":12,"first_name":"Fabian","last_name":"Hewins","email":"fhewinsb@deviantart.com","date":"3/14/2017","time":"0:11","city":"Las Matas de Santa Cruz","address":"1 Evergreen Center","product":"Pirate Themed Photoshoot in Fuerteventura","price":15},
{"id":13,"first_name":"Fidole","last_name":"Turl","email":"fturlc@bluehost.com","date":"3/7/2017","time":"0:24","city":"Ellös","address":"41655 Amoth Plaza","product":"Dune Buggy Fuerteventura Off Road Excursions","price":75},
{"id":14,"first_name":"Georgeanne","last_name":"Marcinkowski","email":"gmarcinkowskid@wix.com","date":"1/18/2018","time":"14:55","city":"Strzelce","address":"75 Porter Crossing","product":"Private Sunset Sailing Charter for Couples from Corralejo","price":100},
{"id":15,"first_name":"Benni","last_name":"Traite","email":"btraitee@cbsnews.com","date":"9/25/2017","time":"5:30","city":"Pasireurih","address":"44559 Becker Drive","product":"Private Sunset Sailing Charter for Couples from Corralejo","price":100},
{"id":16,"first_name":"Hanny","last_name":"Albro","email":"halbrof@abc.net.au","date":"3/4/2017","time":"11:08","city":"Benito Juarez","address":"9 Boyd Point","product":"Private Sunset Sailing Charter for Couples from Corralejo","price":100},
{"id":17,"first_name":"Avram","last_name":"Greenlies","email":"agreenliesg@apache.org","date":"8/30/2017","time":"20:26","city":"Tyringe","address":"07979 Briar Crest Junction","product":"Pirate Themed Photoshoot in Fuerteventura","price":15},
{"id":18,"first_name":"Alyda","last_name":"Pulver","email":"apulverh@scientificamerican.com","date":"8/21/2017","time":"12:15","city":"Begowāla","address":"92 Granby Junction","product":"Dune Buggy Fuerteventura Off Road Excursions","price":75},
{"id":19,"first_name":"Merle","last_name":"Camilleri","email":"mcamillerii@arizona.edu","date":"10/24/2017","time":"12:56","city":"Potelych","address":"580 Eagle Crest Hill","product":"Pirate Themed Photoshoot in Fuerteventura","price":15},
{"id":20,"first_name":"Ettore","last_name":"Thomassin","email":"ethomassinj@netscape.com","date":"6/30/2017","time":"7:26","city":"Heerlen","address":"85859 Springs Alley","product":"Pirate Themed Photoshoot in Fuerteventura","price":15},
{"id":21,"first_name":"Sonya","last_name":"Armor","email":"sarmork@posterous.com","date":"1/17/2018","time":"11:12","city":"Muranovo","address":"14724 Forest Dale Center","product":"4-hour sailing tour of Lobos Island","price":60},
{"id":22,"first_name":"Anabal","last_name":"Spreag","email":"aspreagl@taobao.com","date":"12/5/2017","time":"14:12","city":"Cauayan","address":"15789 High Crossing Avenue","product":"Discover Fuerteventura from Lanzarote","price":28.8},
{"id":23,"first_name":"Sandra","last_name":"Pieracci","email":"spieraccim@house.gov","date":"1/8/2018","time":"5:29","city":"Legok","address":"52 Swallow Hill","product":"Discover Fuerteventura from Lanzarote","price":28.8},
{"id":24,"first_name":"Katuscha","last_name":"Eschelle","email":"keschellen@wikimedia.org","date":"12/20/2017","time":"9:44","city":"Liljendal","address":"691 Riverside Junction","product":"Dune Buggy Fuerteventura Off Road Excursions","price":75},
{"id":25,"first_name":"Catriona","last_name":"Glander","email":"cglandero@umich.edu","date":"10/18/2017","time":"13:13","city":"Majennang","address":"587 Lyons Avenue","product":"Dune Buggy Fuerteventura Off Road Excursions","price":75},
{"id":26,"first_name":"Audre","last_name":"Pantridge","email":"apantridgep@cnet.com","date":"9/10/2017","time":"2:04","city":"Lao Suea Kok","address":"9 La Follette Drive","product":"Private Sunset Sailing Charter for Couples from Corralejo","price":100},
{"id":27,"first_name":"Herb","last_name":"Fossord","email":"hfossordq@altervista.org","date":"12/2/2017","time":"11:03","city":"Caringin","address":"9 Loeprich Circle","product":"Pirate Themed Photoshoot in Fuerteventura","price":15},
{"id":28,"first_name":"Trixi","last_name":"Pinnocke","email":"tpinnocker@weebly.com","date":"10/15/2017","time":"19:27","city":"Wińsko","address":"48 Oak Circle","product":"Dune Buggy Fuerteventura Off Road Excursions","price":75},
{"id":29,"first_name":"Kristal","last_name":"Lias","email":"kliass@buzzfeed.com","date":"9/4/2017","time":"21:11","city":"Yutan","address":"9103 Dawn Place","product":"Dune Buggy Fuerteventura Off Road Excursions","price":75},
{"id":30,"first_name":"Tessa","last_name":"Ianinotti","email":"tianinottit@gov.uk","date":"1/31/2018","time":"22:05","city":"Kamojimachō-jōgejima","address":"038 American Trail","product":"Fuerventura at your own pace by ferry Armas","price":28.8},
{"id":31,"first_name":"Thibaut","last_name":"Abate","email":"tabateu@jimdo.com","date":"8/7/2017","time":"12:14","city":"Golema Rečica","address":"11708 Hagan Parkway","product":"Discover Fuerteventura from Lanzarote","price":28.8},
{"id":32,"first_name":"Rachel","last_name":"Moulding","email":"rmouldingv@devhub.com","date":"2/11/2018","time":"3:20","city":"Cachoeira","address":"8840 Autumn Leaf Plaza","product":"Pirate Themed Photoshoot in Fuerteventura","price":15},
{"id":33,"first_name":"Allyn","last_name":"Jeal","email":"ajealw@geocities.jp","date":"2/8/2017","time":"19:52","city":"Beloyarskiy","address":"28 Montana Circle","product":"Discover Fuerteventura from Lanzarote","price":48.08},
{"id":34,"first_name":"Rahel","last_name":"Hellyer","email":"rhellyerx@usgs.gov","date":"2/5/2017","time":"9:25","city":"Messina","address":"07746 Cody Place","product":"Acua Water Park","price":32},
{"id":35,"first_name":"Leshia","last_name":"Pawelec","email":"lpawelecy@home.pl","date":"6/17/2017","time":"20:19","city":"Крива Паланка","address":"372 Eagan Hill","product":"Private Sunset Sailing Charter for Couples from Corralejo","price":100},
{"id":36,"first_name":"Pepillo","last_name":"Swatheridge","email":"pswatheridgez@yellowbook.com","date":"10/31/2017","time":"22:57","city":"Jianggang","address":"9306 Cherokee Pass","product":"Discover Fuerteventura from Lanzarote","price":48.08},
{"id":37,"first_name":"Langston","last_name":"Claffey","email":"lclaffey10@tinypic.com","date":"1/19/2018","time":"22:07","city":"Uchaly","address":"20234 Fisk Circle","product":"Discover Fuerteventura from Lanzarote","price":28.8},
{"id":38,"first_name":"Jeanette","last_name":"Whellans","email":"jwhellans11@homestead.com","date":"3/14/2017","time":"5:19","city":"Kveda Chkhorots’q’u","address":"4684 Toban Drive","product":"Dune Buggy Fuerteventura Off Road Excursions","price":75},
{"id":39,"first_name":"Caryl","last_name":"Willgoss","email":"cwillgoss12@cpanel.net","date":"2/1/2018","time":"21:03","city":"Kliteh","address":"249 Bultman Junction","product":"Discover Fuerteventura from Lanzarote","price":48.08},
{"id":40,"first_name":"Britta","last_name":"Treker","email":"btreker13@businessweek.com","date":"9/20/2017","time":"8:54","city":"Tiout","address":"89008 Express Hill","product":"Acua Water Park","price":32},
{"id":41,"first_name":"Luciano","last_name":"Flippelli","email":"lflippelli14@icio.us","date":"11/5/2017","time":"7:53","city":"Church End","address":"9 Autumn Leaf Circle","product":"Fuerventura at your own pace by ferry Armas","price":28.8},
{"id":42,"first_name":"Tony","last_name":"Halladey","email":"thalladey15@stanford.edu","date":"7/13/2017","time":"21:05","city":"Sinabang","address":"01 Clarendon Lane","product":"Private Sunset Sailing Charter for Couples from Corralejo","price":100},
{"id":43,"first_name":"Scot","last_name":"Foulgham","email":"sfoulgham16@cam.ac.uk","date":"5/2/2017","time":"11:59","city":"Cacocum","address":"6 Michigan Circle","product":"4-hour sailing tour of Lobos Island","price":60},
{"id":44,"first_name":"Ninnetta","last_name":"Skaife","email":"nskaife17@multiply.com","date":"12/1/2017","time":"9:55","city":"Naples","address":"18581 Carey Trail","product":"Discover Fuerteventura from Lanzarote","price":28.8},
{"id":45,"first_name":"Iona","last_name":"Leipold","email":"ileipold18@house.gov","date":"7/18/2017","time":"10:34","city":"Sanxi","address":"313 Schmedeman Hill","product":"4-hour sailing tour of Lobos Island","price":60},
{"id":46,"first_name":"Winthrop","last_name":"Roff","email":"wroff19@intel.com","date":"9/1/2017","time":"4:27","city":"Kalývia","address":"03 Mallory Park","product":"Dune Buggy Fuerteventura Off Road Excursions","price":75},
{"id":47,"first_name":"Nedda","last_name":"Plenderleith","email":"nplenderleith1a@barnesandnoble.com","date":"9/14/2017","time":"5:07","city":"Outapi","address":"69 Grover Terrace","product":"Dune Buggy Fuerteventura Off Road Excursions","price":75},
{"id":48,"first_name":"Allister","last_name":"Ousby","email":"aousby1b@sfgate.com","date":"1/5/2018","time":"0:52","city":"Chebba","address":"9868 Duke Drive","product":"Dune Buggy Fuerteventura Off Road Excursions","price":75},
{"id":49,"first_name":"Darrin","last_name":"Laterza","email":"dlaterza1c@miibeian.gov.cn","date":"6/26/2017","time":"22:46","city":"Arvidsjaur","address":"398 Lakewood Road","product":"Acua Water Park","price":32},
{"id":50,"first_name":"Kerry","last_name":"Delouch","email":"kdelouch1d@tinyurl.com","date":"7/26/2017","time":"2:10","city":"Atlanta","address":"66 Melvin Center","product":"Pirate Themed Photoshoot in Fuerteventura","price":15},
{"id":51,"first_name":"Doreen","last_name":"Lawler","email":"dlawler1e@hao123.com","date":"9/1/2017","time":"4:51","city":"Lianpeng","address":"5625 Everett Parkway","product":"Discover Fuerteventura from Lanzarote","price":48.08},
{"id":52,"first_name":"Shandie","last_name":"Bisgrove","email":"sbisgrove1f@123-reg.co.uk","date":"12/12/2017","time":"14:08","city":"Lexington","address":"5 Knutson Crossing","product":"4-hour sailing tour of Lobos Island","price":60},
{"id":53,"first_name":"Merissa","last_name":"Sawtell","email":"msawtell1g@weebly.com","date":"9/21/2017","time":"22:16","city":"Sudimara","address":"76 Northridge Park","product":"Dune Buggy Fuerteventura Off Road Excursions","price":75},
{"id":54,"first_name":"Stephanus","last_name":"Probbin","email":"sprobbin1h@slideshare.net","date":"10/1/2017","time":"0:48","city":"Kokop","address":"15 Prairieview Crossing","product":"Private Sunset Sailing Charter for Couples from Corralejo","price":100},
{"id":55,"first_name":"Kevin","last_name":"Mayger","email":"kmayger1i@telegraph.co.uk","date":"6/4/2017","time":"13:25","city":"Cayara","address":"96 Carberry Street","product":"4-hour sailing tour of Lobos Island","price":60},
{"id":56,"first_name":"Brock","last_name":"Steptoe","email":"bsteptoe1j@microsoft.com","date":"12/24/2017","time":"2:25","city":"Guojia","address":"51137 Michigan Junction","product":"4-hour sailing tour of Lobos Island","price":60},
{"id":57,"first_name":"Melisandra","last_name":"De la Eglise","email":"mdelaeglise1k@merriam-webster.com","date":"10/20/2017","time":"13:45","city":"Oborniki Śląskie","address":"71 Huxley Trail","product":"Acua Water Park","price":32},
{"id":58,"first_name":"Jessalyn","last_name":"Topping","email":"jtopping1l@rediff.com","date":"3/3/2017","time":"6:17","city":"Preobrazheniye","address":"161 Knutson Street","product":"Private Sunset Sailing Charter for Couples from Corralejo","price":100},
{"id":59,"first_name":"Louie","last_name":"Cowling","email":"lcowling1m@elpais.com","date":"9/14/2017","time":"0:18","city":"Lucas","address":"466 Manitowish Road","product":"Dune Buggy Fuerteventura Off Road Excursions","price":75},
{"id":60,"first_name":"Haslett","last_name":"Silliman","email":"hsilliman1n@state.gov","date":"10/4/2017","time":"20:19","city":"Yanqi","address":"1654 Northfield Lane","product":"Discover Fuerteventura from Lanzarote","price":48.08},
{"id":61,"first_name":"Traci","last_name":"Crippen","email":"tcrippen1o@wp.com","date":"2/1/2017","time":"1:23","city":"Bendo","address":"64118 Namekagon Plaza","product":"4-hour sailing tour of Lobos Island","price":60},
{"id":62,"first_name":"Ann-marie","last_name":"McGinn","email":"amcginn1p@dell.com","date":"3/25/2017","time":"13:12","city":"Nykvarn","address":"41 Hanson Center","product":"Fuerventura at your own pace by ferry Armas","price":48.08},
{"id":63,"first_name":"Ingaberg","last_name":"Laurie","email":"ilaurie1q@washington.edu","date":"2/6/2018","time":"13:31","city":"Baykit","address":"13824 Dottie Avenue","product":"Acua Water Park","price":32},
{"id":64,"first_name":"Annice","last_name":"Cow","email":"acow1r@pcworld.com","date":"3/22/2017","time":"0:44","city":"Daxing","address":"8 Burning Wood Park","product":"Pirate Themed Photoshoot in Fuerteventura","price":15},
{"id":65,"first_name":"Merle","last_name":"Filippone","email":"mfilippone1s@indiegogo.com","date":"2/7/2018","time":"19:23","city":"Lis","address":"25 Badeau Park","product":"Discover Fuerteventura from Lanzarote","price":28.8},
{"id":66,"first_name":"Pen","last_name":"Downe","email":"pdowne1t@comsenz.com","date":"1/31/2018","time":"9:17","city":"Montaneza","address":"46077 Scoville Center","product":"Discover Fuerteventura from Lanzarote","price":48.08},
{"id":67,"first_name":"Jon","last_name":"Edmott","email":"jedmott1u@youtube.com","date":"1/3/2018","time":"1:45","city":"Pasian","address":"3822 Gulseth Place","product":"Dune Buggy Fuerteventura Off Road Excursions","price":75},
{"id":68,"first_name":"Aidan","last_name":"Edscer","email":"aedscer1v@gov.uk","date":"12/26/2017","time":"19:57","city":"Menzel Abderhaman","address":"03982 Forest Dale Court","product":"4-hour sailing tour of Lobos Island","price":60},
{"id":69,"first_name":"Rachele","last_name":"Maylour","email":"rmaylour1w@oracle.com","date":"9/8/2017","time":"9:11","city":"Waipawa","address":"30606 Green Ridge Alley","product":"4-hour sailing tour of Lobos Island","price":60},
{"id":70,"first_name":"Illa","last_name":"Burke","email":"iburke1x@dion.ne.jp","date":"9/20/2017","time":"8:59","city":"Choya","address":"65 Eagle Crest Avenue","product":"4-hour sailing tour of Lobos Island","price":60},
{"id":71,"first_name":"Wallis","last_name":"De Domenicis","email":"wdedomenicis1y@pen.io","date":"4/15/2017","time":"23:11","city":"Lilin Satu","address":"94981 Raven Alley","product":"4-hour sailing tour of Lobos Island","price":60},
{"id":72,"first_name":"Pandora","last_name":"Tunder","email":"ptunder1z@studiopress.com","date":"4/22/2017","time":"12:45","city":"Kertahayu","address":"1621 Forest Run Street","product":"Fuerventura at your own pace by ferry Armas","price":28.8},
{"id":73,"first_name":"Caressa","last_name":"Minear","email":"cminear20@springer.com","date":"1/18/2018","time":"8:08","city":"Gijon","address":"110 Birchwood Way","product":"Dune Buggy Fuerteventura Off Road Excursions","price":75},
{"id":74,"first_name":"Malanie","last_name":"Picken","email":"mpicken21@linkedin.com","date":"3/12/2017","time":"15:10","city":"Jatisari","address":"9 Kensington Hill","product":"Acua Water Park","price":32},
{"id":75,"first_name":"Keane","last_name":"Janaszkiewicz","email":"kjanaszkiewicz22@php.net","date":"11/7/2017","time":"22:27","city":"Al Kiswah","address":"9 Orin Lane","product":"Private Sunset Sailing Charter for Couples from Corralejo","price":100},
{"id":76,"first_name":"Addison","last_name":"Shearston","email":"ashearston23@ucoz.com","date":"4/30/2017","time":"8:06","city":"Bugul’ma","address":"6849 Straubel Junction","product":"Pirate Themed Photoshoot in Fuerteventura","price":15},
{"id":77,"first_name":"Sauncho","last_name":"Alesbrook","email":"salesbrook24@dot.gov","date":"8/21/2017","time":"20:39","city":"Persen","address":"2 Grasskamp Drive","product":"Private Sunset Sailing Charter for Couples from Corralejo","price":100},
{"id":78,"first_name":"Cordie","last_name":"Quincee","email":"cquincee25@e-recht24.de","date":"10/26/2017","time":"4:30","city":"Toulouse","address":"98829 Ridgeway Street","product":"Pirate Themed Photoshoot in Fuerteventura","price":15},
{"id":79,"first_name":"Reagan","last_name":"Hidderley","email":"rhidderley26@noaa.gov","date":"11/11/2017","time":"5:59","city":"Nîmes","address":"5 Prairieview Circle","product":"Discover Fuerteventura from Lanzarote","price":28.8},
{"id":80,"first_name":"Lynsey","last_name":"Prendiville","email":"lprendiville27@xinhuanet.com","date":"1/21/2018","time":"23:19","city":"Aguitu","address":"300 Del Mar Center","product":"Pirate Themed Photoshoot in Fuerteventura","price":15},
{"id":81,"first_name":"Murdoch","last_name":"Lghan","email":"mlghan28@multiply.com","date":"2/3/2018","time":"16:14","city":"Wuyang","address":"879 Shasta Court","product":"Acua Water Park","price":32},
{"id":82,"first_name":"Nadia","last_name":"Kuschke","email":"nkuschke29@nbcnews.com","date":"7/5/2017","time":"9:08","city":"Aquitania","address":"720 5th Center","product":"Pirate Themed Photoshoot in Fuerteventura","price":15},
{"id":83,"first_name":"Gilles","last_name":"Chilley","email":"gchilley2a@spotify.com","date":"4/9/2017","time":"12:06","city":"Chãos","address":"743 Hoffman Plaza","product":"Discover Fuerteventura from Lanzarote","price":28.8},
{"id":84,"first_name":"Cathie","last_name":"Mairs","email":"cmairs2b@sourceforge.net","date":"6/15/2017","time":"19:42","city":"Chester","address":"584 Superior Court","product":"Private Sunset Sailing Charter for Couples from Corralejo","price":100},
{"id":85,"first_name":"Skippie","last_name":"Kemwal","email":"skemwal2c@g.co","date":"5/14/2017","time":"20:24","city":"Wang Sombun","address":"1 Scoville Crossing","product":"Pirate Themed Photoshoot in Fuerteventura","price":15},
{"id":86,"first_name":"Nevsa","last_name":"Legister","email":"nlegister2d@exblog.jp","date":"8/24/2017","time":"6:13","city":"Perches","address":"21 Roxbury Junction","product":"Pirate Themed Photoshoot in Fuerteventura","price":15},
{"id":87,"first_name":"Dorris","last_name":"Blockwell","email":"dblockwell2e@ed.gov","date":"5/25/2017","time":"20:05","city":"Joutseno","address":"5 Clarendon Road","product":"Pirate Themed Photoshoot in Fuerteventura","price":15},
{"id":88,"first_name":"Imojean","last_name":"Colson","email":"icolson2f@myspace.com","date":"1/18/2018","time":"12:00","city":"Bultfontein","address":"108 Di Loreto Avenue","product":"Dune Buggy Fuerteventura Off Road Excursions","price":75},
{"id":89,"first_name":"Orelia","last_name":"Teese","email":"oteese2g@last.fm","date":"11/25/2017","time":"23:10","city":"Biên Hòa","address":"18 Pleasure Pass","product":"Discover Fuerteventura from Lanzarote","price":48.08},
{"id":90,"first_name":"Michele","last_name":"Rodenburgh","email":"mrodenburgh2h@fotki.com","date":"8/18/2017","time":"11:48","city":"Beaumont","address":"2 Forest Plaza","product":"Dune Buggy Fuerteventura Off Road Excursions","price":75},
{"id":91,"first_name":"Clem","last_name":"Dahler","email":"cdahler2i@amazon.co.uk","date":"9/30/2017","time":"4:37","city":"Bitanjuan","address":"8 Glacier Hill Terrace","product":"Dune Buggy Fuerteventura Off Road Excursions","price":75},
{"id":92,"first_name":"Dana","last_name":"Pitone","email":"dpitone2j@gravatar.com","date":"3/2/2017","time":"8:20","city":"Karlstad","address":"77 Harbort Lane","product":"Fuerventura at your own pace by ferry Armas","price":28.8},
{"id":93,"first_name":"Ofelia","last_name":"Vallack","email":"ovallack2k@arizona.edu","date":"11/26/2017","time":"12:14","city":"Mouzourás","address":"22 Granby Way","product":"Dune Buggy Fuerteventura Off Road Excursions","price":75},
{"id":94,"first_name":"Thorny","last_name":"Woolfoot","email":"twoolfoot2l@cloudflare.com","date":"2/27/2017","time":"11:50","city":"Gunungpeundeuy","address":"2695 Armistice Park","product":"Acua Water Park","price":32},
{"id":95,"first_name":"Richardo","last_name":"Cudde","email":"rcudde2m@nymag.com","date":"2/9/2018","time":"5:53","city":"Ziębice","address":"59615 Nancy Court","product":"Discover Fuerteventura from Lanzarote","price":48.08},
{"id":96,"first_name":"Raphael","last_name":"Jarvis","email":"rjarvis2n@behance.net","date":"12/21/2017","time":"2:40","city":"Panenggoede","address":"512 Monica Point","product":"4-hour sailing tour of Lobos Island","price":60},
{"id":97,"first_name":"Walker","last_name":"Crawforth","email":"wcrawforth2o@cbsnews.com","date":"11/19/2017","time":"1:01","city":"Muskegon","address":"03 Center Park","product":"Private Sunset Sailing Charter for Couples from Corralejo","price":100},
{"id":98,"first_name":"Freddy","last_name":"Davidsson","email":"fdavidsson2p@nationalgeographic.com","date":"2/3/2017","time":"21:26","city":"Guernica","address":"3329 Jenna Avenue","product":"Dune Buggy Fuerteventura Off Road Excursions","price":75},
{"id":99,"first_name":"Morly","last_name":"Gothard","email":"mgothard2q@imgur.com","date":"4/2/2017","time":"11:33","city":"Nakanojōmachi","address":"9895 Schlimgen Drive","product":"Private Sunset Sailing Charter for Couples from Corralejo","price":100},
{"id":100,"first_name":"Dominica","last_name":"Baraclough","email":"dbaraclough2r@nymag.com","date":"8/10/2017","time":"1:36","city":"Zhuxi Chengguanzhen","address":"381 Little Fleur Terrace","product":"Dune Buggy Fuerteventura Off Road Excursions","price":75},
{"id":101,"first_name":"Dietrich","last_name":"Bowbrick","email":"dbowbrick2s@etsy.com","date":"4/9/2017","time":"13:08","city":"Komorniki","address":"24 Arkansas Park","product":"Acua Water Park","price":32},
{"id":102,"first_name":"Guglielma","last_name":"Scriven","email":"gscriven2t@squarespace.com","date":"1/16/2018","time":"2:50","city":"Olenegorsk","address":"7 Alpine Center","product":"Pirate Themed Photoshoot in Fuerteventura","price":15},
{"id":103,"first_name":"Sharia","last_name":"Terren","email":"sterren2u@constantcontact.com","date":"2/28/2017","time":"10:21","city":"Bergen","address":"05255 Dapin Park","product":"Discover Fuerteventura from Lanzarote","price":48.08},
{"id":104,"first_name":"Ealasaid","last_name":"Santorini","email":"esantorini2v@moonfruit.com","date":"6/8/2017","time":"7:58","city":"Chambray-lès-Tours","address":"5438 Forest Run Center","product":"Acua Water Park","price":32},
{"id":105,"first_name":"Bail","last_name":"Meaden","email":"bmeaden2w@homestead.com","date":"8/15/2017","time":"12:44","city":"Watthana Nakhon","address":"7 Ruskin Street","product":"Dune Buggy Fuerteventura Off Road Excursions","price":75},
{"id":106,"first_name":"Micky","last_name":"Lowings","email":"mlowings2x@homestead.com","date":"9/1/2017","time":"5:04","city":"København","address":"909 John Wall Place","product":"4-hour sailing tour of Lobos Island","price":60},
{"id":107,"first_name":"Mechelle","last_name":"MacTavish","email":"mmactavish2y@census.gov","date":"12/19/2017","time":"9:51","city":"Madjeouéni","address":"12965 Hanson Lane","product":"Dune Buggy Fuerteventura Off Road Excursions","price":75},
{"id":108,"first_name":"Rawley","last_name":"Grimster","email":"rgrimster2z@springer.com","date":"1/2/2018","time":"8:03","city":"Feyẕābād","address":"4 Grayhawk Junction","product":"Fuerventura at your own pace by ferry Armas","price":28.8},
{"id":109,"first_name":"Olympe","last_name":"Gowdridge","email":"ogowdridge30@reuters.com","date":"9/21/2017","time":"22:02","city":"Saint-Bruno","address":"66966 Bonner Alley","product":"Pirate Themed Photoshoot in Fuerteventura","price":15},
{"id":110,"first_name":"Alfy","last_name":"Lindley","email":"alindley31@biglobe.ne.jp","date":"2/24/2017","time":"11:58","city":"Nangela","address":"267 Artisan Trail","product":"Pirate Themed Photoshoot in Fuerteventura","price":15},
{"id":111,"first_name":"Dacy","last_name":"Essery","email":"dessery32@cdbaby.com","date":"2/2/2018","time":"15:42","city":"Frydek","address":"720 Sycamore Street","product":"Fuerventura at your own pace by ferry Armas","price":48.08},
{"id":112,"first_name":"Chev","last_name":"Vawton","email":"cvawton33@xing.com","date":"4/27/2017","time":"12:04","city":"Koten","address":"1705 Stephen Alley","product":"Discover Fuerteventura from Lanzarote","price":28.8},
{"id":113,"first_name":"Aridatha","last_name":"Rockingham","email":"arockingham34@umich.edu","date":"7/20/2017","time":"12:57","city":"Panzhuang","address":"5067 New Castle Plaza","product":"4-hour sailing tour of Lobos Island","price":60},
{"id":114,"first_name":"Caroljean","last_name":"Raimbauld","email":"craimbauld35@tamu.edu","date":"2/15/2017","time":"5:24","city":"Don Tan","address":"97 Swallow Park","product":"4-hour sailing tour of Lobos Island","price":60},
{"id":115,"first_name":"Trevar","last_name":"Southern","email":"tsouthern36@hexun.com","date":"10/3/2017","time":"12:21","city":"Youguzhuang","address":"00 Raven Avenue","product":"4-hour sailing tour of Lobos Island","price":60},
{"id":116,"first_name":"Christophe","last_name":"Rizzardini","email":"crizzardini37@yolasite.com","date":"4/1/2017","time":"19:59","city":"San Jose","address":"42 4th Road","product":"Private Sunset Sailing Charter for Couples from Corralejo","price":100},
{"id":117,"first_name":"Joelle","last_name":"Stevani","email":"jstevani38@miibeian.gov.cn","date":"3/25/2017","time":"23:05","city":"Hengling","address":"30 Glendale Lane","product":"Acua Water Park","price":32},
{"id":118,"first_name":"Janna","last_name":"Thing","email":"jthing39@flavors.me","date":"1/2/2018","time":"11:52","city":"Huasahuasi","address":"71868 Vera Center","product":"4-hour sailing tour of Lobos Island","price":60},
{"id":119,"first_name":"Hazlett","last_name":"MacCawley","email":"hmaccawley3a@hexun.com","date":"11/8/2017","time":"5:59","city":"Tangnanzhen","address":"191 Gateway Junction","product":"Discover Fuerteventura from Lanzarote","price":28.8},
{"id":120,"first_name":"Shandy","last_name":"Harman","email":"sharman3b@opensource.org","date":"2/21/2017","time":"19:27","city":"Qianwei","address":"731 School Way","product":"Dune Buggy Fuerteventura Off Road Excursions","price":75},
{"id":121,"first_name":"Joni","last_name":"Rubbens","email":"jrubbens3c@marketwatch.com","date":"10/9/2017","time":"3:14","city":"Iwakuni","address":"325 Dennis Parkway","product":"Pirate Themed Photoshoot in Fuerteventura","price":15},
{"id":122,"first_name":"Arlena","last_name":"Hember","email":"ahember3d@reference.com","date":"5/18/2017","time":"18:04","city":"Karangora","address":"57964 Marcy Trail","product":"Acua Water Park","price":32},
{"id":123,"first_name":"Lu","last_name":"Carah","email":"lcarah3e@wordpress.org","date":"4/24/2017","time":"23:06","city":"Brikama Nding","address":"48124 Schurz Road","product":"Private Sunset Sailing Charter for Couples from Corralejo","price":100},
{"id":124,"first_name":"Stacee","last_name":"Ruusa","email":"sruusa3f@google.co.uk","date":"9/24/2017","time":"4:48","city":"Kotabaru","address":"6458 East Point","product":"Dune Buggy Fuerteventura Off Road Excursions","price":75},
{"id":125,"first_name":"Dyane","last_name":"Tulloch","email":"dtulloch3g@wunderground.com","date":"4/12/2017","time":"13:01","city":"Xindian","address":"79 American Street","product":"Dune Buggy Fuerteventura Off Road Excursions","price":75},
{"id":126,"first_name":"Carlie","last_name":"Mycock","email":"cmycock3h@youtube.com","date":"1/15/2018","time":"1:07","city":"Bella Vista","address":"59 Parkside Drive","product":"Fuerventura at your own pace by ferry Armas","price":48.08},
{"id":127,"first_name":"Nancee","last_name":"Hadlington","email":"nhadlington3i@ebay.co.uk","date":"2/18/2017","time":"16:18","city":"Hazlov","address":"0226 Porter Center","product":"Fuerventura at your own pace by ferry Armas","price":48.08},
{"id":128,"first_name":"Baxter","last_name":"Reburn","email":"breburn3j@smugmug.com","date":"7/3/2017","time":"3:12","city":"Vila Viçosa","address":"010 Anderson Terrace","product":"Fuerventura at your own pace by ferry Armas","price":48.08},
{"id":129,"first_name":"Jean","last_name":"Pollie","email":"jpollie3k@redcross.org","date":"6/20/2017","time":"10:41","city":"San Juan Pueblo","address":"3346 Schiller Street","product":"Acua Water Park","price":32},
{"id":130,"first_name":"Dill","last_name":"Winslow","email":"dwinslow3l@csmonitor.com","date":"5/20/2017","time":"17:22","city":"Santong","address":"3969 Kennedy Point","product":"Dune Buggy Fuerteventura Off Road Excursions","price":75},
{"id":131,"first_name":"Catharine","last_name":"Wynter","email":"cwynter3m@printfriendly.com","date":"6/16/2017","time":"3:03","city":"La Cruz","address":"7 Coleman Circle","product":"Pirate Themed Photoshoot in Fuerteventura","price":15},
{"id":132,"first_name":"Lib","last_name":"Hales","email":"lhales3n@amazon.co.jp","date":"4/9/2017","time":"1:10","city":"Wodzierady","address":"959 Bowman Junction","product":"Private Sunset Sailing Charter for Couples from Corralejo","price":100},
{"id":133,"first_name":"Mildred","last_name":"Manzell","email":"mmanzell3o@multiply.com","date":"9/3/2017","time":"23:51","city":"Episkopí","address":"146 Beilfuss Avenue","product":"Dune Buggy Fuerteventura Off Road Excursions","price":75},
{"id":134,"first_name":"Roxane","last_name":"Van De Cappelle","email":"rvandecappelle3p@answers.com","date":"1/10/2018","time":"4:57","city":"Växjö","address":"0759 Sundown Road","product":"Acua Water Park","price":32},
{"id":135,"first_name":"Finley","last_name":"Cockarill","email":"fcockarill3q@si.edu","date":"2/16/2018","time":"20:43","city":"Caridade","address":"84567 Eggendart Court","product":"Discover Fuerteventura from Lanzarote","price":48.08},
{"id":136,"first_name":"Audra","last_name":"Lewknor","email":"alewknor3r@instagram.com","date":"4/18/2017","time":"5:53","city":"Phalaborwa","address":"2 Superior Junction","product":"Fuerventura at your own pace by ferry Armas","price":28.8},
{"id":137,"first_name":"Lynnet","last_name":"Schops","email":"lschops3s@meetup.com","date":"2/14/2018","time":"12:42","city":"Johor Bahru","address":"5 Stone Corner Way","product":"Dune Buggy Fuerteventura Off Road Excursions","price":75},
{"id":138,"first_name":"Forbes","last_name":"Mitten","email":"fmitten3t@vk.com","date":"6/7/2017","time":"19:35","city":"Irupi","address":"8 Dottie Way","product":"Dune Buggy Fuerteventura Off Road Excursions","price":75},
{"id":139,"first_name":"Savina","last_name":"Shekle","email":"sshekle3u@dion.ne.jp","date":"3/23/2017","time":"5:15","city":"Laon","address":"7539 Hoffman Court","product":"4-hour sailing tour of Lobos Island","price":60},
{"id":140,"first_name":"Niles","last_name":"Northleigh","email":"nnorthleigh3v@dailymail.co.uk","date":"7/28/2017","time":"21:39","city":"Tipitapa","address":"3012 Pierstorff Crossing","product":"Pirate Themed Photoshoot in Fuerteventura","price":15},
{"id":141,"first_name":"Fredek","last_name":"Robatham","email":"frobatham3w@imdb.com","date":"10/11/2017","time":"23:19","city":"Berlin","address":"370 Moulton Parkway","product":"Fuerventura at your own pace by ferry Armas","price":48.08},
{"id":142,"first_name":"Teresita","last_name":"Ashburne","email":"tashburne3x@hibu.com","date":"10/16/2017","time":"5:28","city":"Longjiang","address":"718 Dayton Junction","product":"Acua Water Park","price":32},
{"id":143,"first_name":"Jedidiah","last_name":"MacInherney","email":"jmacinherney3y@cbsnews.com","date":"1/23/2018","time":"22:26","city":"Santiago de Baney","address":"076 Lakewood Gardens Drive","product":"Acua Water Park","price":32},
{"id":144,"first_name":"Lilyan","last_name":"Coulling","email":"lcoulling3z@cnn.com","date":"10/20/2017","time":"18:56","city":"Paseka","address":"51434 High Crossing Court","product":"Fuerventura at your own pace by ferry Armas","price":28.8},
{"id":145,"first_name":"Ailina","last_name":"Halworth","email":"ahalworth40@usa.gov","date":"12/10/2017","time":"13:28","city":"Amorim","address":"61 Leroy Street","product":"Fuerventura at your own pace by ferry Armas","price":28.8},
{"id":146,"first_name":"Janine","last_name":"Tabor","email":"jtabor41@hhs.gov","date":"9/17/2017","time":"17:48","city":"Shuanggang","address":"80 Nancy Hill","product":"Pirate Themed Photoshoot in Fuerteventura","price":15},
{"id":147,"first_name":"Bryce","last_name":"Illingsworth","email":"billingsworth42@blogspot.com","date":"1/5/2018","time":"5:04","city":"Pinggang","address":"26 South Way","product":"Dune Buggy Fuerteventura Off Road Excursions","price":75},
{"id":148,"first_name":"Paddy","last_name":"Rycroft","email":"prycroft43@europa.eu","date":"3/25/2017","time":"12:44","city":"Cần Giờ","address":"849 Thackeray Court","product":"4-hour sailing tour of Lobos Island","price":60},
{"id":149,"first_name":"Stewart","last_name":"Mumby","email":"smumby44@pcworld.com","date":"11/18/2017","time":"4:20","city":"Wako","address":"9233 Hovde Alley","product":"Dune Buggy Fuerteventura Off Road Excursions","price":75},
{"id":150,"first_name":"Con","last_name":"Glendenning","email":"cglendenning45@yelp.com","date":"3/27/2017","time":"3:19","city":"Sumqayıt","address":"7121 Waubesa Junction","product":"Acua Water Park","price":32},
{"id":151,"first_name":"Evangelin","last_name":"Soppeth","email":"esoppeth46@va.gov","date":"12/17/2017","time":"3:18","city":"La Cocha","address":"286 Karstens Circle","product":"Private Sunset Sailing Charter for Couples from Corralejo","price":100},
{"id":152,"first_name":"Rupert","last_name":"Brangan","email":"rbrangan47@aol.com","date":"5/14/2017","time":"0:16","city":"Jiabeiyan","address":"6547 Elka Junction","product":"Acua Water Park","price":32},
{"id":153,"first_name":"Barbie","last_name":"Cantillon","email":"bcantillon48@fotki.com","date":"2/7/2017","time":"23:52","city":"Novi Sad","address":"6151 Mayer Trail","product":"4-hour sailing tour of Lobos Island","price":60},
{"id":154,"first_name":"Dare","last_name":"Rampton","email":"drampton49@instagram.com","date":"3/26/2017","time":"6:54","city":"Las Varas","address":"84797 Mitchell Hill","product":"Dune Buggy Fuerteventura Off Road Excursions","price":75},
{"id":155,"first_name":"Dreddy","last_name":"Ackerman","email":"dackerman4a@bing.com","date":"12/20/2017","time":"19:10","city":"Arroyo Seco","address":"78345 Westport Junction","product":"Dune Buggy Fuerteventura Off Road Excursions","price":75},
{"id":156,"first_name":"Delmer","last_name":"Latore","email":"dlatore4b@github.com","date":"3/31/2017","time":"12:47","city":"Kuchurhan","address":"61 Truax Alley","product":"4-hour sailing tour of Lobos Island","price":60},
{"id":157,"first_name":"Tiffi","last_name":"Kier","email":"tkier4c@ning.com","date":"7/19/2017","time":"2:55","city":"Bethal","address":"75 Veith Plaza","product":"4-hour sailing tour of Lobos Island","price":60},
{"id":158,"first_name":"Lynnell","last_name":"Wrates","email":"lwrates4d@desdev.cn","date":"3/16/2017","time":"8:31","city":"Kambar","address":"07 Fuller Trail","product":"Private Sunset Sailing Charter for Couples from Corralejo","price":100},
{"id":159,"first_name":"Jessalin","last_name":"Domerq","email":"jdomerq4e@dedecms.com","date":"10/4/2017","time":"14:15","city":"Wuyun","address":"1 Doe Crossing Street","product":"Discover Fuerteventura from Lanzarote","price":28.8},
{"id":160,"first_name":"Courtenay","last_name":"Sellens","email":"csellens4f@vistaprint.com","date":"2/4/2017","time":"5:28","city":"Chingas","address":"26 High Crossing Lane","product":"4-hour sailing tour of Lobos Island","price":60},
{"id":161,"first_name":"Tucker","last_name":"Drinkale","email":"tdrinkale4g@seattletimes.com","date":"1/29/2018","time":"9:44","city":"La Rochelle","address":"977 Corscot Trail","product":"Discover Fuerteventura from Lanzarote","price":48.08},
{"id":162,"first_name":"Lydia","last_name":"Glendining","email":"lglendining4h@nps.gov","date":"11/26/2017","time":"17:44","city":"Dmitriyevskaya","address":"3 School Parkway","product":"Pirate Themed Photoshoot in Fuerteventura","price":15},
{"id":163,"first_name":"Ramonda","last_name":"Sherwen","email":"rsherwen4i@ow.ly","date":"2/22/2017","time":"7:23","city":"Amqui","address":"472 Colorado Court","product":"Private Sunset Sailing Charter for Couples from Corralejo","price":100},
{"id":164,"first_name":"Dwain","last_name":"Okell","email":"dokell4j@dedecms.com","date":"11/24/2017","time":"20:08","city":"Zhajin","address":"53 Stoughton Junction","product":"Private Sunset Sailing Charter for Couples from Corralejo","price":100},
{"id":165,"first_name":"Osbourn","last_name":"Fucher","email":"ofucher4k@seesaa.net","date":"2/7/2018","time":"4:44","city":"Hakodate","address":"44939 4th Parkway","product":"4-hour sailing tour of Lobos Island","price":60},
{"id":166,"first_name":"Edith","last_name":"Cicerone","email":"ecicerone4l@php.net","date":"1/4/2018","time":"10:56","city":"Maungatapere","address":"86223 Badeau Alley","product":"Acua Water Park","price":32},
{"id":167,"first_name":"Theda","last_name":"Staveley","email":"tstaveley4m@addtoany.com","date":"4/2/2017","time":"15:48","city":"Lyamino","address":"7710 Charing Cross Parkway","product":"Private Sunset Sailing Charter for Couples from Corralejo","price":100},
{"id":168,"first_name":"Jessi","last_name":"Bosma","email":"jbosma4n@mit.edu","date":"6/25/2017","time":"13:00","city":"Douane","address":"9144 Rockefeller Point","product":"Discover Fuerteventura from Lanzarote","price":28.8},
{"id":169,"first_name":"Loralee","last_name":"Esplin","email":"lesplin4o@merriam-webster.com","date":"2/3/2018","time":"13:45","city":"Macia","address":"09 Mockingbird Avenue","product":"Acua Water Park","price":32},
{"id":170,"first_name":"Jethro","last_name":"Iddins","email":"jiddins4p@addthis.com","date":"9/6/2017","time":"0:34","city":"Darpas","address":"14 Londonderry Court","product":"Pirate Themed Photoshoot in Fuerteventura","price":15},
{"id":171,"first_name":"Leanora","last_name":"Turley","email":"lturley4q@nature.com","date":"4/20/2017","time":"16:10","city":"Vedène","address":"824 Beilfuss Way","product":"Discover Fuerteventura from Lanzarote","price":28.8},
{"id":172,"first_name":"Rene","last_name":"Mc Caghan","email":"rmccaghan4r@washington.edu","date":"10/23/2017","time":"18:20","city":"Silca","address":"87318 Annamark Alley","product":"Discover Fuerteventura from Lanzarote","price":28.8},
{"id":173,"first_name":"Lorette","last_name":"Motte","email":"lmotte4s@salon.com","date":"2/6/2018","time":"20:26","city":"Cikarang","address":"917 Heath Pass","product":"4-hour sailing tour of Lobos Island","price":60},
{"id":174,"first_name":"Ferd","last_name":"Gligorijevic","email":"fgligorijevic4t@cmu.edu","date":"10/13/2017","time":"12:43","city":"Tomaševac","address":"293 Holmberg Avenue","product":"Acua Water Park","price":32},
{"id":175,"first_name":"Jacquelin","last_name":"Quinane","email":"jquinane4u@360.cn","date":"12/4/2017","time":"17:07","city":"Sankoutang","address":"1716 Spaight Place","product":"Fuerventura at your own pace by ferry Armas","price":28.8},
{"id":176,"first_name":"Dreddy","last_name":"Norres","email":"dnorres4v@pinterest.com","date":"4/14/2017","time":"23:44","city":"Socorro","address":"45403 Oneill Alley","product":"Fuerventura at your own pace by ferry Armas","price":28.8},
{"id":177,"first_name":"Charmane","last_name":"Oakhill","email":"coakhill4w@mapquest.com","date":"5/11/2017","time":"3:19","city":"Smiltene","address":"0 Westridge Crossing","product":"Pirate Themed Photoshoot in Fuerteventura","price":15},
{"id":178,"first_name":"Margret","last_name":"Folger","email":"mfolger4x@engadget.com","date":"7/10/2017","time":"15:11","city":"Xiashuitou","address":"1 Pleasure Lane","product":"Dune Buggy Fuerteventura Off Road Excursions","price":75},
{"id":179,"first_name":"Sylvia","last_name":"Pleavin","email":"spleavin4y@admin.ch","date":"8/17/2017","time":"18:50","city":"Cerro","address":"6 Northport Alley","product":"Discover Fuerteventura from Lanzarote","price":48.08},
{"id":180,"first_name":"Frederich","last_name":"Ealam","email":"fealam4z@senate.gov","date":"1/5/2018","time":"19:10","city":"Mégara","address":"2821 Manufacturers Circle","product":"4-hour sailing tour of Lobos Island","price":60},
{"id":181,"first_name":"Marcelo","last_name":"Teresia","email":"mteresia50@prweb.com","date":"10/1/2017","time":"15:00","city":"Clondalkin","address":"18 Mariners Cove Plaza","product":"4-hour sailing tour of Lobos Island","price":60},
{"id":182,"first_name":"Karen","last_name":"Scaddon","email":"kscaddon51@soundcloud.com","date":"9/3/2017","time":"17:49","city":"Torrão","address":"880 Vernon Crossing","product":"Private Sunset Sailing Charter for Couples from Corralejo","price":100},
{"id":183,"first_name":"Bert","last_name":"McNaught","email":"bmcnaught52@reverbnation.com","date":"10/25/2017","time":"1:32","city":"Río Colorado","address":"27 Loeprich Hill","product":"Fuerventura at your own pace by ferry Armas","price":48.08},
{"id":184,"first_name":"Sindee","last_name":"Kezor","email":"skezor53@marriott.com","date":"4/30/2017","time":"16:18","city":"Yorosso","address":"768 Sommers Avenue","product":"4-hour sailing tour of Lobos Island","price":60},
{"id":185,"first_name":"Johanna","last_name":"Pumphrey","email":"jpumphrey54@quantcast.com","date":"3/21/2017","time":"20:58","city":"Fujieda","address":"1 Scofield Circle","product":"Dune Buggy Fuerteventura Off Road Excursions","price":75},
{"id":186,"first_name":"Tobit","last_name":"Burnhill","email":"tburnhill55@fc2.com","date":"12/13/2017","time":"11:34","city":"Huicheng","address":"2 Rieder Center","product":"4-hour sailing tour of Lobos Island","price":60},
{"id":187,"first_name":"Dolf","last_name":"Reyner","email":"dreyner56@constantcontact.com","date":"5/9/2017","time":"14:09","city":"Adolfo Ruiz Cortines","address":"70882 Rigney Plaza","product":"Acua Water Park","price":32},
{"id":188,"first_name":"Masha","last_name":"Majury","email":"mmajury57@amazon.com","date":"5/19/2017","time":"8:02","city":"Bezerros","address":"8 Shasta Circle","product":"Pirate Themed Photoshoot in Fuerteventura","price":15},
{"id":189,"first_name":"Pavla","last_name":"Aleksahkin","email":"paleksahkin58@cyberchimps.com","date":"12/31/2017","time":"23:10","city":"Qingshi","address":"9 Manley Parkway","product":"Pirate Themed Photoshoot in Fuerteventura","price":15},
{"id":190,"first_name":"Eleanora","last_name":"Rawcliffe","email":"erawcliffe59@google.pl","date":"4/28/2017","time":"19:22","city":"Molinos","address":"219 Pine View Lane","product":"4-hour sailing tour of Lobos Island","price":60},
{"id":191,"first_name":"Darrelle","last_name":"Thomen","email":"dthomen5a@home.pl","date":"4/26/2017","time":"22:44","city":"Shangshaleng","address":"160 Russell Park","product":"Discover Fuerteventura from Lanzarote","price":48.08},
{"id":192,"first_name":"Cris","last_name":"Chilvers","email":"cchilvers5b@scribd.com","date":"10/28/2017","time":"9:37","city":"Cisagu","address":"4 Scofield Terrace","product":"Private Sunset Sailing Charter for Couples from Corralejo","price":100},
{"id":193,"first_name":"Rancell","last_name":"Idney","email":"ridney5c@yelp.com","date":"4/11/2017","time":"10:45","city":"Yangcheng","address":"7484 Park Meadow Street","product":"Private Sunset Sailing Charter for Couples from Corralejo","price":100},
{"id":194,"first_name":"Roch","last_name":"Doree","email":"rdoree5d@jugem.jp","date":"8/5/2017","time":"19:34","city":"San Jose","address":"0 Laurel Avenue","product":"Discover Fuerteventura from Lanzarote","price":28.8},
{"id":195,"first_name":"Georgena","last_name":"Gurwood","email":"ggurwood5e@vkontakte.ru","date":"11/3/2017","time":"18:24","city":"Farafangana","address":"66 Carberry Court","product":"4-hour sailing tour of Lobos Island","price":60},
{"id":196,"first_name":"Cosmo","last_name":"Casbolt","email":"ccasbolt5f@wikipedia.org","date":"1/29/2018","time":"2:58","city":"Farah","address":"6604 Northview Center","product":"Discover Fuerteventura from Lanzarote","price":28.8},
{"id":197,"first_name":"Kissee","last_name":"Lambertazzi","email":"klambertazzi5g@ucoz.com","date":"7/11/2017","time":"7:52","city":"Fangshan","address":"5275 Messerschmidt Parkway","product":"Dune Buggy Fuerteventura Off Road Excursions","price":75},
{"id":198,"first_name":"Vivien","last_name":"Odell","email":"vodell5h@telegraph.co.uk","date":"11/21/2017","time":"22:32","city":"Ibrā’","address":"24738 Sachs Junction","product":"Dune Buggy Fuerteventura Off Road Excursions","price":75},
{"id":199,"first_name":"Erinn","last_name":"Thomassen","email":"ethomassen5i@wired.com","date":"3/5/2017","time":"6:46","city":"Cortez","address":"262 Del Mar Crossing","product":"4-hour sailing tour of Lobos Island","price":60},
{"id":200,"first_name":"Padget","last_name":"Delagnes","email":"pdelagnes5j@dagondesign.com","date":"10/24/2017","time":"9:25","city":"Dongtundu","address":"34 John Wall Terrace","product":"Fuerventura at your own pace by ferry Armas","price":28.8},
{"id":201,"first_name":"Keir","last_name":"Phython","email":"kphython5k@miibeian.gov.cn","date":"4/7/2017","time":"3:05","city":"Tanbu","address":"797 Northridge Center","product":"Discover Fuerteventura from Lanzarote","price":28.8},
{"id":202,"first_name":"Rourke","last_name":"Sumption","email":"rsumption5l@tripadvisor.com","date":"4/23/2017","time":"7:24","city":"Garça","address":"0448 Waxwing Junction","product":"Acua Water Park","price":32},
{"id":203,"first_name":"Gabriella","last_name":"Ferronet","email":"gferronet5m@sfgate.com","date":"7/8/2017","time":"18:39","city":"Tundagan","address":"3911 Hazelcrest Crossing","product":"Private Sunset Sailing Charter for Couples from Corralejo","price":100},
{"id":204,"first_name":"Christoffer","last_name":"Vogt","email":"cvogt5n@chron.com","date":"8/5/2017","time":"10:43","city":"Wuxi","address":"8 Parkside Street","product":"Discover Fuerteventura from Lanzarote","price":48.08},
{"id":205,"first_name":"Frieda","last_name":"Vize","email":"fvize5o@europa.eu","date":"2/24/2017","time":"10:14","city":"Rijeka","address":"911 Porter Pass","product":"Acua Water Park","price":32},
{"id":206,"first_name":"Madalena","last_name":"Tizard","email":"mtizard5p@blogs.com","date":"3/4/2017","time":"16:00","city":"Detchino","address":"5919 Quincy Way","product":"Discover Fuerteventura from Lanzarote","price":28.8},
{"id":207,"first_name":"Gregoor","last_name":"Walne","email":"gwalne5q@hhs.gov","date":"12/13/2017","time":"13:56","city":"Liboro","address":"4514 Barnett Junction","product":"4-hour sailing tour of Lobos Island","price":60},
{"id":208,"first_name":"Prent","last_name":"Jewess","email":"pjewess5r@liveinternet.ru","date":"5/22/2017","time":"6:04","city":"Hrochův Týnec","address":"59 Superior Trail","product":"Private Sunset Sailing Charter for Couples from Corralejo","price":100},
{"id":209,"first_name":"Gris","last_name":"Widdowson","email":"gwiddowson5s@chicagotribune.com","date":"1/17/2018","time":"4:00","city":"Huangyuan Chengguanzhen","address":"58 Waubesa Point","product":"Discover Fuerteventura from Lanzarote","price":28.8},
{"id":210,"first_name":"Nerta","last_name":"Cane","email":"ncane5t@europa.eu","date":"2/5/2017","time":"19:20","city":"‘Afrīn","address":"2 Springs Pass","product":"Private Sunset Sailing Charter for Couples from Corralejo","price":100},
{"id":211,"first_name":"Francene","last_name":"Stansell","email":"fstansell5u@ihg.com","date":"3/7/2017","time":"9:50","city":"Constanza","address":"8077 Westport Hill","product":"Dune Buggy Fuerteventura Off Road Excursions","price":75},
{"id":212,"first_name":"Reinhard","last_name":"Aubray","email":"raubray5v@webeden.co.uk","date":"11/24/2017","time":"12:27","city":"Lannion","address":"3 Thierer Pass","product":"Discover Fuerteventura from Lanzarote","price":48.08},
{"id":213,"first_name":"Wernher","last_name":"Bartels-Ellis","email":"wbartelsellis5w@live.com","date":"3/18/2017","time":"16:57","city":"Ritchie","address":"568 Forster Lane","product":"Acua Water Park","price":32},
{"id":214,"first_name":"Tudor","last_name":"Spencock","email":"tspencock5x@sourceforge.net","date":"7/25/2017","time":"22:13","city":"Halayhay","address":"5692 Michigan Point","product":"Discover Fuerteventura from Lanzarote","price":28.8},
{"id":215,"first_name":"Wanda","last_name":"Cornil","email":"wcornil5y@naver.com","date":"4/13/2017","time":"16:10","city":"Ngawi","address":"9 Northport Plaza","product":"4-hour sailing tour of Lobos Island","price":60},
{"id":216,"first_name":"Gaultiero","last_name":"Flacknoe","email":"gflacknoe5z@sourceforge.net","date":"11/8/2017","time":"22:21","city":"Heping","address":"5 Center Point","product":"4-hour sailing tour of Lobos Island","price":60},
{"id":217,"first_name":"Gibbie","last_name":"Eustice","email":"geustice60@gravatar.com","date":"10/19/2017","time":"16:19","city":"Vera Cruz","address":"0447 Jay Lane","product":"Pirate Themed Photoshoot in Fuerteventura","price":15},
{"id":218,"first_name":"Gerry","last_name":"Droghan","email":"gdroghan61@state.tx.us","date":"8/26/2017","time":"18:26","city":"Noveleta","address":"5314 Fieldstone Street","product":"Dune Buggy Fuerteventura Off Road Excursions","price":75},
{"id":219,"first_name":"Myrilla","last_name":"Iveans","email":"miveans62@prweb.com","date":"2/8/2018","time":"11:58","city":"Trenggulunan","address":"11719 Thierer Lane","product":"4-hour sailing tour of Lobos Island","price":60},
{"id":220,"first_name":"Tomasina","last_name":"Haizelden","email":"thaizelden63@nasa.gov","date":"1/22/2018","time":"10:16","city":"Jargalant","address":"46 Atwood Junction","product":"Fuerventura at your own pace by ferry Armas","price":28.8},
{"id":221,"first_name":"Eleanor","last_name":"Reeken","email":"ereeken64@java.com","date":"3/12/2017","time":"14:14","city":"Kathu","address":"3 Crowley Way","product":"Private Sunset Sailing Charter for Couples from Corralejo","price":100},
{"id":222,"first_name":"Isabella","last_name":"Milillo","email":"imilillo65@ucoz.com","date":"2/5/2018","time":"18:38","city":"Kefar Shemaryahu","address":"666 Katie Place","product":"Discover Fuerteventura from Lanzarote","price":48.08},
{"id":223,"first_name":"Jdavie","last_name":"Nicklin","email":"jnicklin66@ovh.net","date":"1/30/2018","time":"6:41","city":"Anse à Galets","address":"234 Division Road","product":"Pirate Themed Photoshoot in Fuerteventura","price":15},
{"id":224,"first_name":"Berni","last_name":"Barrabeale","email":"bbarrabeale67@unblog.fr","date":"4/15/2017","time":"3:31","city":"Qufu","address":"03717 Milwaukee Alley","product":"Private Sunset Sailing Charter for Couples from Corralejo","price":100},
{"id":225,"first_name":"Jillian","last_name":"Canete","email":"jcanete68@nps.gov","date":"5/30/2017","time":"17:49","city":"Pengshi","address":"54 Mariners Cove Crossing","product":"Acua Water Park","price":32},
{"id":226,"first_name":"Sancho","last_name":"Sessions","email":"ssessions69@seattletimes.com","date":"8/15/2017","time":"18:34","city":"Non Sung","address":"8 Maple Crossing","product":"4-hour sailing tour of Lobos Island","price":60},
{"id":227,"first_name":"Pavia","last_name":"Peert","email":"ppeert6a@nationalgeographic.com","date":"12/13/2017","time":"21:37","city":"Novokhovrino","address":"98626 Lien Place","product":"Acua Water Park","price":32},
{"id":228,"first_name":"Kermy","last_name":"Rissom","email":"krissom6b@craigslist.org","date":"1/5/2018","time":"22:47","city":"Zhangjia","address":"6492 Kropf Crossing","product":"Private Sunset Sailing Charter for Couples from Corralejo","price":100},
{"id":229,"first_name":"Sherman","last_name":"Mew","email":"smew6c@pcworld.com","date":"11/2/2017","time":"15:02","city":"Ganjiang","address":"653 Badeau Point","product":"Dune Buggy Fuerteventura Off Road Excursions","price":75},
{"id":230,"first_name":"Mirelle","last_name":"Mustoo","email":"mmustoo6d@ehow.com","date":"2/5/2018","time":"8:35","city":"Kotakaya Dua","address":"655 Johnson Avenue","product":"Acua Water Park","price":32},
{"id":231,"first_name":"Marmaduke","last_name":"Santen","email":"msanten6e@twitter.com","date":"3/31/2017","time":"15:12","city":"Bayshint","address":"5 Lakeland Point","product":"Pirate Themed Photoshoot in Fuerteventura","price":15},
{"id":232,"first_name":"Dedie","last_name":"Colloby","email":"dcolloby6f@github.io","date":"1/20/2018","time":"4:42","city":"Keyinhe","address":"38 Northland Center","product":"Acua Water Park","price":32},
{"id":233,"first_name":"Temp","last_name":"Fraschini","email":"tfraschini6g@flavors.me","date":"12/18/2017","time":"5:38","city":"Saravia","address":"78846 5th Hill","product":"Dune Buggy Fuerteventura Off Road Excursions","price":75},
{"id":234,"first_name":"Barn","last_name":"D'Antuoni","email":"bdantuoni6h@phpbb.com","date":"11/5/2017","time":"18:07","city":"Rumāh","address":"72 Ridgeview Pass","product":"Fuerventura at your own pace by ferry Armas","price":48.08},
{"id":235,"first_name":"Sidoney","last_name":"Knevit","email":"sknevit6i@live.com","date":"12/10/2017","time":"8:12","city":"Bela Vista do Paraíso","address":"3 Golden Leaf Way","product":"Acua Water Park","price":32},
{"id":236,"first_name":"Tommi","last_name":"Halkyard","email":"thalkyard6j@smh.com.au","date":"6/22/2017","time":"16:20","city":"Paclolo","address":"923 Rowland Trail","product":"Private Sunset Sailing Charter for Couples from Corralejo","price":100},
{"id":237,"first_name":"Erena","last_name":"Bauchop","email":"ebauchop6k@fotki.com","date":"3/22/2017","time":"2:47","city":"Linköping","address":"3389 Northfield Circle","product":"Discover Fuerteventura from Lanzarote","price":48.08},
{"id":238,"first_name":"Carlynn","last_name":"Golledge","email":"cgolledge6l@mysql.com","date":"2/27/2017","time":"11:47","city":"San Juan de Planes","address":"9588 David Parkway","product":"Fuerventura at your own pace by ferry Armas","price":48.08},
{"id":239,"first_name":"Reggi","last_name":"Bowe","email":"rbowe6m@eepurl.com","date":"5/30/2017","time":"19:31","city":"Kuantan","address":"87 Redwing Park","product":"Dune Buggy Fuerteventura Off Road Excursions","price":75},
{"id":240,"first_name":"Barclay","last_name":"Tomasoni","email":"btomasoni6n@umn.edu","date":"3/8/2017","time":"2:56","city":"Citeureup","address":"8 Nelson Circle","product":"Private Sunset Sailing Charter for Couples from Corralejo","price":100},
{"id":241,"first_name":"Dulcine","last_name":"Shetliff","email":"dshetliff6o@lulu.com","date":"10/15/2017","time":"9:16","city":"Ambatolaona","address":"56923 Cottonwood Hill","product":"Pirate Themed Photoshoot in Fuerteventura","price":15},
{"id":242,"first_name":"Carlos","last_name":"Mc Caghan","email":"cmccaghan6p@exblog.jp","date":"9/22/2017","time":"7:50","city":"Taisen-ri","address":"747 Mcbride Alley","product":"Private Sunset Sailing Charter for Couples from Corralejo","price":100},
{"id":243,"first_name":"Clarissa","last_name":"Irdale","email":"cirdale6q@ihg.com","date":"3/25/2017","time":"2:49","city":"Miejsce Piastowe","address":"07 Fremont Way","product":"4-hour sailing tour of Lobos Island","price":60},
{"id":244,"first_name":"Tamera","last_name":"Bootman","email":"tbootman6r@usa.gov","date":"11/20/2017","time":"10:32","city":"Topdac","address":"958 Bunker Hill Crossing","product":"Fuerventura at your own pace by ferry Armas","price":48.08},
{"id":245,"first_name":"Corbett","last_name":"Neaverson","email":"cneaverson6s@samsung.com","date":"11/17/2017","time":"5:49","city":"Lengji","address":"66173 Tomscot Lane","product":"Private Sunset Sailing Charter for Couples from Corralejo","price":100},
{"id":246,"first_name":"Abraham","last_name":"Gobbet","email":"agobbet6t@npr.org","date":"1/2/2018","time":"4:42","city":"Ning’an","address":"0 Morning Road","product":"Pirate Themed Photoshoot in Fuerteventura","price":15},
{"id":247,"first_name":"Vina","last_name":"Writtle","email":"vwrittle6u@jimdo.com","date":"9/26/2017","time":"11:07","city":"Khlong Luang","address":"22119 Dunning Parkway","product":"Acua Water Park","price":32},
{"id":248,"first_name":"Muffin","last_name":"Raggitt","email":"mraggitt6v@home.pl","date":"9/17/2017","time":"18:46","city":"San Joaquin","address":"08 Dryden Parkway","product":"Acua Water Park","price":32},
{"id":249,"first_name":"Bobby","last_name":"Duns","email":"bduns6w@berkeley.edu","date":"8/25/2017","time":"11:35","city":"Mnogoudobnoye","address":"7250 Corscot Junction","product":"Pirate Themed Photoshoot in Fuerteventura","price":15},
{"id":250,"first_name":"Liv","last_name":"Eisikowitch","email":"leisikowitch6x@topsy.com","date":"1/20/2018","time":"19:55","city":"Magitang","address":"4 Eastwood Plaza","product":"Pirate Themed Photoshoot in Fuerteventura","price":15},
{"id":251,"first_name":"Chrissy","last_name":"Roach","email":"croach6y@nba.com","date":"2/26/2017","time":"3:52","city":"Guará","address":"20132 Hauk Road","product":"4-hour sailing tour of Lobos Island","price":60},
{"id":252,"first_name":"Ania","last_name":"Cunniam","email":"acunniam6z@wp.com","date":"4/30/2017","time":"11:55","city":"Töreboda","address":"841 Golf View Way","product":"Acua Water Park","price":32},
{"id":253,"first_name":"Cornelia","last_name":"Townsley","email":"ctownsley70@freewebs.com","date":"5/11/2017","time":"22:54","city":"Negeriagung","address":"872 Coleman Pass","product":"Discover Fuerteventura from Lanzarote","price":28.8},
{"id":254,"first_name":"Astrid","last_name":"Lamp","email":"alamp71@amazonaws.com","date":"1/9/2018","time":"4:31","city":"Metsamor","address":"77288 Ohio Road","product":"Dune Buggy Fuerteventura Off Road Excursions","price":75},
{"id":255,"first_name":"Elwood","last_name":"Gaishson","email":"egaishson72@dagondesign.com","date":"4/6/2017","time":"18:45","city":"Al Mālikīyah","address":"8 Express Way","product":"Private Sunset Sailing Charter for Couples from Corralejo","price":100},
{"id":256,"first_name":"Lionello","last_name":"Copcutt","email":"lcopcutt73@earthlink.net","date":"2/25/2017","time":"3:20","city":"Muḩradah","address":"0259 Valley Edge Crossing","product":"Acua Water Park","price":32},
{"id":257,"first_name":"Orly","last_name":"Launder","email":"olaunder74@ftc.gov","date":"10/18/2017","time":"19:12","city":"Tārūt","address":"42 Graedel Circle","product":"Pirate Themed Photoshoot in Fuerteventura","price":15},
{"id":258,"first_name":"Isidor","last_name":"Redholls","email":"iredholls75@plala.or.jp","date":"5/18/2017","time":"3:06","city":"Mekarsari","address":"0160 Ilene Junction","product":"Private Sunset Sailing Charter for Couples from Corralejo","price":100},
{"id":259,"first_name":"Travers","last_name":"Savidge","email":"tsavidge76@netvibes.com","date":"8/11/2017","time":"15:40","city":"Weepanapi","address":"2166 Hazelcrest Center","product":"4-hour sailing tour of Lobos Island","price":60},
{"id":260,"first_name":"Forrester","last_name":"Aldins","email":"faldins77@wix.com","date":"9/1/2017","time":"20:04","city":"Ogwashi-Uku","address":"9093 Texas Junction","product":"Fuerventura at your own pace by ferry Armas","price":28.8},
{"id":261,"first_name":"Tristam","last_name":"Voelker","email":"tvoelker78@lycos.com","date":"7/13/2017","time":"12:52","city":"Ouadda","address":"93067 Carpenter Hill","product":"Private Sunset Sailing Charter for Couples from Corralejo","price":100},
{"id":262,"first_name":"Waylan","last_name":"Tilte","email":"wtilte79@latimes.com","date":"1/7/2018","time":"12:20","city":"Hanjia","address":"02 Daystar Lane","product":"Acua Water Park","price":32},
{"id":263,"first_name":"Paige","last_name":"Emlen","email":"pemlen7a@gmpg.org","date":"11/27/2017","time":"17:31","city":"Macau","address":"45 Bluejay Road","product":"Private Sunset Sailing Charter for Couples from Corralejo","price":100},
{"id":264,"first_name":"Clerc","last_name":"Reynish","email":"creynish7b@ox.ac.uk","date":"7/19/2017","time":"16:56","city":"Juncalito Abajo","address":"7952 Maywood Terrace","product":"Acua Water Park","price":32},
{"id":265,"first_name":"Greggory","last_name":"Pendlebury","email":"gpendlebury7c@mysql.com","date":"5/16/2017","time":"1:23","city":"Lae","address":"2318 7th Point","product":"Acua Water Park","price":32},
{"id":266,"first_name":"Sterne","last_name":"Groucutt","email":"sgroucutt7d@biglobe.ne.jp","date":"10/18/2017","time":"6:23","city":"Shangde","address":"1 Maple Wood Center","product":"Acua Water Park","price":32},
{"id":267,"first_name":"Tory","last_name":"Huntley","email":"thuntley7e@biglobe.ne.jp","date":"10/4/2017","time":"23:10","city":"Sydney","address":"56 Melrose Way","product":"Dune Buggy Fuerteventura Off Road Excursions","price":75},
{"id":268,"first_name":"Adamo","last_name":"Holburn","email":"aholburn7f@fc2.com","date":"12/31/2017","time":"9:56","city":"Ad Dann","address":"14 Swallow Place","product":"Private Sunset Sailing Charter for Couples from Corralejo","price":100},
{"id":269,"first_name":"Cami","last_name":"Dell Casa","email":"cdellcasa7g@imageshack.us","date":"2/4/2018","time":"7:07","city":"Wangzuizi","address":"92 Twin Pines Court","product":"Dune Buggy Fuerteventura Off Road Excursions","price":75},
{"id":270,"first_name":"Stanley","last_name":"Higford","email":"shigford7h@t-online.de","date":"7/7/2017","time":"9:11","city":"Sarankhola","address":"21 Magdeline Drive","product":"Private Sunset Sailing Charter for Couples from Corralejo","price":100},
{"id":271,"first_name":"Geri","last_name":"Pedroni","email":"gpedroni7i@gravatar.com","date":"8/13/2017","time":"13:18","city":"Shajing","address":"64542 Hagan Point","product":"Acua Water Park","price":32},
{"id":272,"first_name":"Rubia","last_name":"Wooster","email":"rwooster7j@php.net","date":"8/23/2017","time":"18:53","city":"Azacualpa","address":"0459 Sachtjen Court","product":"Acua Water Park","price":32},
{"id":273,"first_name":"Caren","last_name":"McCanny","email":"cmccanny7k@yelp.com","date":"10/20/2017","time":"22:39","city":"Cabungan","address":"01251 Hudson Circle","product":"Pirate Themed Photoshoot in Fuerteventura","price":15},
{"id":274,"first_name":"Neddy","last_name":"Adey","email":"nadey7l@privacy.gov.au","date":"12/23/2017","time":"15:01","city":"Wuluo","address":"559 Wayridge Road","product":"Discover Fuerteventura from Lanzarote","price":48.08},
{"id":275,"first_name":"Danni","last_name":"Hillitt","email":"dhillitt7m@livejournal.com","date":"2/20/2017","time":"23:30","city":"Shangkuli","address":"57 Pond Lane","product":"Discover Fuerteventura from Lanzarote","price":48.08},
{"id":276,"first_name":"Edvard","last_name":"Swepstone","email":"eswepstone7n@arstechnica.com","date":"12/26/2017","time":"9:28","city":"Frashër","address":"95212 Granby Drive","product":"Discover Fuerteventura from Lanzarote","price":28.8},
{"id":277,"first_name":"Catriona","last_name":"Rois","email":"crois7o@si.edu","date":"3/26/2017","time":"19:25","city":"Schiltigheim","address":"931 Vera Parkway","product":"Acua Water Park","price":32},
{"id":278,"first_name":"Ranique","last_name":"Tinn","email":"rtinn7p@bbb.org","date":"6/3/2017","time":"15:35","city":"Zavety Il’icha","address":"46 Holmberg Pass","product":"Pirate Themed Photoshoot in Fuerteventura","price":15},
{"id":279,"first_name":"Selene","last_name":"Whittington","email":"swhittington7q@merriam-webster.com","date":"11/14/2017","time":"1:16","city":"Tongyangdao","address":"66450 Riverside Place","product":"Acua Water Park","price":32},
{"id":280,"first_name":"Lezlie","last_name":"Hrinchenko","email":"lhrinchenko7r@alibaba.com","date":"1/23/2018","time":"15:27","city":"Jieduo","address":"7 Lindbergh Terrace","product":"Dune Buggy Fuerteventura Off Road Excursions","price":75},
{"id":281,"first_name":"Jennifer","last_name":"Milmith","email":"jmilmith7s@weather.com","date":"1/21/2018","time":"0:11","city":"Höviyn Am","address":"295 Lindbergh Lane","product":"Acua Water Park","price":32},
{"id":282,"first_name":"Giustina","last_name":"Snape","email":"gsnape7t@sun.com","date":"4/8/2017","time":"16:31","city":"Goyang-si","address":"75150 Sauthoff Lane","product":"Fuerventura at your own pace by ferry Armas","price":48.08},
{"id":283,"first_name":"Jordana","last_name":"Jamblin","email":"jjamblin7u@china.com.cn","date":"2/6/2018","time":"4:30","city":"Chonglou","address":"5 Rieder Terrace","product":"Discover Fuerteventura from Lanzarote","price":28.8},
{"id":284,"first_name":"Mort","last_name":"Hildrew","email":"mhildrew7v@apple.com","date":"9/21/2017","time":"11:26","city":"Trindade","address":"876 Pond Terrace","product":"Fuerventura at your own pace by ferry Armas","price":28.8},
{"id":285,"first_name":"Graeme","last_name":"Cleland","email":"gcleland7w@cdbaby.com","date":"6/16/2017","time":"11:46","city":"Heqing","address":"551 Miller Crossing","product":"Private Sunset Sailing Charter for Couples from Corralejo","price":100},
{"id":286,"first_name":"Jocelyn","last_name":"Antoniades","email":"jantoniades7x@domainmarket.com","date":"2/4/2018","time":"16:17","city":"Zapala","address":"5 Veith Street","product":"Fuerventura at your own pace by ferry Armas","price":28.8},
{"id":287,"first_name":"Emmy","last_name":"Heartfield","email":"eheartfield7y@tripadvisor.com","date":"11/2/2017","time":"20:20","city":"Oka","address":"09 Hansons Junction","product":"4-hour sailing tour of Lobos Island","price":60},
{"id":288,"first_name":"Willem","last_name":"Hull","email":"whull7z@amazon.de","date":"9/4/2017","time":"1:06","city":"Bendoroto","address":"6 Nova Hill","product":"4-hour sailing tour of Lobos Island","price":60},
{"id":289,"first_name":"Tamra","last_name":"Jiles","email":"tjiles80@illinois.edu","date":"10/11/2017","time":"22:57","city":"Mników","address":"2 Summer Ridge Alley","product":"Fuerventura at your own pace by ferry Armas","price":28.8},
{"id":290,"first_name":"Dniren","last_name":"Pennone","email":"dpennone81@europa.eu","date":"6/13/2017","time":"11:50","city":"Donglai","address":"90 Mitchell Point","product":"4-hour sailing tour of Lobos Island","price":60},
{"id":291,"first_name":"Esdras","last_name":"Ortler","email":"eortler82@ucoz.com","date":"2/10/2017","time":"0:53","city":"Tournavista","address":"06 Clyde Gallagher Center","product":"Discover Fuerteventura from Lanzarote","price":28.8},
{"id":292,"first_name":"Sibyl","last_name":"Kellet","email":"skellet83@ca.gov","date":"11/21/2017","time":"4:03","city":"Smolec","address":"9 7th Plaza","product":"Dune Buggy Fuerteventura Off Road Excursions","price":75},
{"id":293,"first_name":"Maryellen","last_name":"Klas","email":"mklas84@jigsy.com","date":"6/20/2017","time":"7:32","city":"Tejar","address":"28 International Road","product":"Fuerventura at your own pace by ferry Armas","price":28.8},
{"id":294,"first_name":"Tabbi","last_name":"Denyer","email":"tdenyer85@mozilla.com","date":"3/15/2017","time":"12:43","city":"Dunlewy","address":"32590 Sauthoff Circle","product":"Private Sunset Sailing Charter for Couples from Corralejo","price":100},
{"id":295,"first_name":"Andres","last_name":"Seagar","email":"aseagar86@biblegateway.com","date":"4/3/2017","time":"15:39","city":"Alangalang","address":"0 Donald Park","product":"4-hour sailing tour of Lobos Island","price":60},
{"id":296,"first_name":"Brock","last_name":"Skacel","email":"bskacel87@reference.com","date":"3/6/2017","time":"14:21","city":"Uście Gorlickie","address":"8 Sherman Alley","product":"Fuerventura at your own pace by ferry Armas","price":48.08},
{"id":297,"first_name":"Haley","last_name":"Fynn","email":"hfynn88@godaddy.com","date":"2/18/2017","time":"9:38","city":"Taourirt","address":"9786 Mesta Court","product":"Private Sunset Sailing Charter for Couples from Corralejo","price":100},
{"id":298,"first_name":"Tammie","last_name":"Mudie","email":"tmudie89@google.ca","date":"9/7/2017","time":"9:19","city":"Liutang","address":"49416 Burning Wood Court","product":"Discover Fuerteventura from Lanzarote","price":28.8},
{"id":299,"first_name":"Jenica","last_name":"Itzhaiek","email":"jitzhaiek8a@vimeo.com","date":"6/18/2017","time":"9:47","city":"Seixo","address":"54 Anderson Avenue","product":"Fuerventura at your own pace by ferry Armas","price":48.08},
{"id":300,"first_name":"Darryl","last_name":"MacKenney","email":"dmackenney8b@exblog.jp","date":"10/20/2017","time":"4:59","city":"Nikitinskiy","address":"782 Sloan Center","product":"4-hour sailing tour of Lobos Island","price":60}]